{
  "unversionedId": "Iac/Terraform_GCP",
  "id": "Iac/Terraform_GCP",
  "title": "Terraform GCP",
  "description": "Terraform sur GCP permet de provisionner des VM, Conteneur, mise en réseau et stockage à l'aide de fichier déclaratif.",
  "source": "@site/docs/Iac/Terraform_GCP.md",
  "sourceDirName": "Iac",
  "slug": "/Iac/Terraform_GCP",
  "permalink": "/docs/Iac/Terraform_GCP",
  "draft": false,
  "editUrl": "https://github.com/facebook/docusaurus/tree/main/packages/create-docusaurus/templates/shared/docs/Iac/Terraform_GCP.md",
  "tags": [],
  "version": "current",
  "sidebarPosition": 1,
  "frontMatter": {
    "sidebar_position": 1
  },
  "sidebar": "tutorialSidebar",
  "previous": {
    "title": "Tuto Intro",
    "permalink": "/docs/intro"
  },
  "next": {
    "title": "Conteneurisation et virtualisation",
    "permalink": "/docs/Conteneurisation/container_virt"
  }
}