{
  "unversionedId": "system/demo",
  "id": "system/demo",
  "title": "Truc et astuce",
  "description": "Enregistrer les entrées et sorties du terminal",
  "source": "@site/docs/system/demo.md",
  "sourceDirName": "system",
  "slug": "/system/demo",
  "permalink": "/docs/system/demo",
  "draft": false,
  "editUrl": "https://github.com/facebook/docusaurus/tree/main/packages/create-docusaurus/templates/shared/docs/system/demo.md",
  "tags": [],
  "version": "current",
  "sidebarPosition": 1,
  "frontMatter": {
    "sidebar_position": 1
  },
  "sidebar": "tutorialSidebar",
  "previous": {
    "title": "Python, les bases",
    "permalink": "/docs/Programmation/demo"
  },
  "next": {
    "title": "debug",
    "permalink": "/docs/system/debug"
  }
}