{
  "unversionedId": "system/debug",
  "id": "system/debug",
  "title": "debug",
  "description": "Clef non valide Ubuntu debian",
  "source": "@site/docs/system/debug.md",
  "sourceDirName": "system",
  "slug": "/system/debug",
  "permalink": "/docs/system/debug",
  "draft": false,
  "editUrl": "https://github.com/facebook/docusaurus/tree/main/packages/create-docusaurus/templates/shared/docs/system/debug.md",
  "tags": [],
  "version": "current",
  "sidebarPosition": 2,
  "frontMatter": {
    "sidebar_position": 2
  },
  "sidebar": "tutorialSidebar",
  "previous": {
    "title": "Truc et astuce",
    "permalink": "/docs/system/demo"
  },
  "next": {
    "title": "Docusaurus Tutorial - Extras",
    "permalink": "/docs/category/docusaurus-tutorial---extras"
  }
}