{
  "unversionedId": "Iac/GCP_CD",
  "id": "Iac/GCP_CD",
  "title": "Google Cloud - Déploiement",
  "description": "Cloud Run",
  "source": "@site/docs/Iac/GCP_CD.md",
  "sourceDirName": "Iac",
  "slug": "/Iac/GCP_CD",
  "permalink": "/docs/Iac/GCP_CD",
  "draft": false,
  "editUrl": "https://github.com/facebook/docusaurus/tree/main/packages/create-docusaurus/templates/shared/docs/Iac/GCP_CD.md",
  "tags": [],
  "version": "current",
  "sidebarPosition": 2,
  "frontMatter": {
    "sidebar_position": 2
  },
  "sidebar": "tutorialSidebar",
  "previous": {
    "title": "Tuto - CI/CD",
    "permalink": "/docs/category/tuto---cicd"
  },
  "next": {
    "title": "Tuto - CI/CD",
    "permalink": "/docs/category/tuto---cicd-1"
  }
}