{
  "unversionedId": "Conteneurisation/container_virt",
  "id": "Conteneurisation/container_virt",
  "title": "Conteneurisation et virtualisation",
  "description": "Image-ConteneurVM",
  "source": "@site/docs/Conteneurisation/container_virt.md",
  "sourceDirName": "Conteneurisation",
  "slug": "/Conteneurisation/container_virt",
  "permalink": "/docs/Conteneurisation/container_virt",
  "draft": false,
  "editUrl": "https://github.com/facebook/docusaurus/tree/main/packages/create-docusaurus/templates/shared/docs/Conteneurisation/container_virt.md",
  "tags": [],
  "version": "current",
  "sidebarPosition": 1,
  "frontMatter": {
    "sidebar_position": 1
  },
  "sidebar": "tutorialSidebar",
  "previous": {
    "title": "Terraform GCP",
    "permalink": "/docs/Iac/Terraform-GCP"
  },
  "next": {
    "title": "Commandes docker",
    "permalink": "/docs/Conteneurisation/commande_docker"
  }
}