{
  "unversionedId": "Virtualisation/Hyperviseur_type_2",
  "id": "Virtualisation/Hyperviseur_type_2",
  "title": "Hyperviseur type 2",
  "description": "En cours de rédaction",
  "source": "@site/docs/Virtualisation/Hyperviseur_type_2.md",
  "sourceDirName": "Virtualisation",
  "slug": "/Virtualisation/Hyperviseur_type_2",
  "permalink": "/docs/Virtualisation/Hyperviseur_type_2",
  "draft": false,
  "editUrl": "https://github.com/facebook/docusaurus/tree/main/packages/create-docusaurus/templates/shared/docs/Virtualisation/Hyperviseur_type_2.md",
  "tags": [],
  "version": "current",
  "sidebarPosition": 2,
  "frontMatter": {
    "sidebar_position": 2
  },
  "sidebar": "tutorialSidebar",
  "previous": {
    "title": "Hyperviseur type 1",
    "permalink": "/docs/Virtualisation/Hyperviteur_type_1"
  },
  "next": {
    "title": "Tuto - CI/CD",
    "permalink": "/docs/category/tuto---cicd"
  }
}